[
  {
   "pins": [
      [
        "A",
        "gnd",
        "Y",
        "vdd"
      ], [
        "A",
        "gnd",
        "Y",
        "vdd"
      ]
   ]
  },
  {
   "pins": [
      [
        "A",
        "gnd",
        "Y",
        "vdd"
      ], [
        "A",
        "gnd",
        "Y",
        "vdd"
      ]
   ]
  },
  {
   "pins": [
      [
        "A",
        "gnd",
        "Y",
        "vdd"
      ], [
        "A",
        "gnd",
        "Y",
        "vdd"
      ]
   ]
  },
  {
   "pins": [
      [
        "A",
        "B",
        "gnd",
        "Y",
        "vdd"
      ], [
        "A",
        "B",
        "gnd",
        "Y",
        "vdd"
      ]
   ]
  },
  {
   "pins": [
      [
        "A",
        "gnd",
        "Y",
        "vdd"
      ], [
        "A",
        "gnd",
        "Y",
        "vdd"
      ]
   ]
  },
  {
   "pins": [
      [
        "A",
        "gnd",
        "Y",
        "vdd"
      ], [
        "A",
        "gnd",
        "Y",
        "vdd"
      ]
   ]
  },
  {
   "pins": [
      [
        "A",
        "B",
        "gnd",
        "Y",
        "vdd"
      ], [
        "A",
        "B",
        "gnd",
        "Y",
        "vdd"
      ]
   ]
  },
  {
   "pins": [
      [
        "A",
        "B",
        "gnd",
        "Y",
        "vdd"
      ], [
        "A",
        "B",
        "gnd",
        "Y",
        "vdd"
      ]
   ]
  },
  {
   "pins": [
      [
        "A",
        "B",
        "C",
        "gnd",
        "Y",
        "vdd"
      ], [
        "A",
        "B",
        "C",
        "gnd",
        "Y",
        "vdd"
      ]
   ]
  },
  {
   "pins": [
      [
        "A",
        "B",
        "gnd",
        "Y",
        "vdd"
      ], [
        "A",
        "B",
        "gnd",
        "Y",
        "vdd"
      ]
   ]
  },
  {
   "pins": [
      [
        "A",
        "B",
        "C",
        "gnd",
        "Y",
        "vdd"
      ], [
        "A",
        "B",
        "C",
        "gnd",
        "Y",
        "vdd"
      ]
   ]
  },
  {
   "pins": [
      [
        "A",
        "B",
        "gnd",
        "Y",
        "vdd"
      ], [
        "A",
        "B",
        "gnd",
        "Y",
        "vdd"
      ]
   ]
  },
  {
   "pins": [
      [
        "A",
        "B",
        "C",
        "gnd",
        "Y",
        "vdd"
      ], [
        "A",
        "B",
        "C",
        "gnd",
        "Y",
        "vdd"
      ]
   ]
  },
  {
   "pins": [
      [
        "A",
        "B",
        "C",
        "gnd",
        "Y",
        "vdd"
      ], [
        "A",
        "B",
        "C",
        "gnd",
        "Y",
        "vdd"
      ]
   ]
  },
  {
   "pins": [
      [
        "Q",
        "CLK",
        "D",
        "gnd",
        "vdd"
      ], [
        "Q",
        "CLK",
        "D",
        "gnd",
        "vdd"
      ]
   ]
  },
  {
   "pins": [
      [
        "A",
        "B",
        "C",
        "D",
        "gnd",
        "Y",
        "vdd"
      ], [
        "A",
        "B",
        "C",
        "D",
        "gnd",
        "Y",
        "vdd"
      ]
   ]
  },
  {
   "pins": [
      [
        "A",
        "B",
        "gnd",
        "Y",
        "vdd"
      ], [
        "A",
        "B",
        "gnd",
        "Y",
        "vdd"
      ]
   ]
  },
  {
   "pins": [
      [
        "A",
        "gnd",
        "Y",
        "vdd"
      ], [
        "A",
        "gnd",
        "Y",
        "vdd"
      ]
   ]
  },
  {
   "pins": [
      [
        "A",
        "B",
        "S",
        "gnd",
        "Y",
        "vdd"
      ], [
        "A",
        "B",
        "S",
        "gnd",
        "Y",
        "vdd"
      ]
   ]
  },
  {
   "pins": [
      [
        "A",
        "B",
        "C",
        "D",
        "gnd",
        "Y",
        "vdd"
      ], [
        "A",
        "B",
        "C",
        "D",
        "gnd",
        "Y",
        "vdd"
      ]
   ]
  },
  {
   "name": [
      "top",
      "top"
   ],
   "devices": [
       [
         ["NOR2X1", 77],
         ["OAI21X1", 247],
         ["INVX2", 66],
         ["NAND3X1", 191],
         ["AOI21X1", 245],
         ["NAND2X1", 141],
         ["DFFPOSX1", 68],
         ["OR2X2", 24],
         ["BUFX2", 8],
         ["OAI22X1", 6],
         ["INVX1", 171],
         ["AND2X2", 67],
         ["XOR2X1", 2],
         ["NOR3X1", 26],
         ["INVX4", 20],
         ["BUFX4", 8],
         ["AOI22X1", 15],
         ["XNOR2X1", 4],
         ["CLKBUF1", 8],
         ["MUX2X1", 5 ]
       ], [
         ["NOR2X1", 77 ],
         ["OAI21X1", 247 ],
         ["INVX2", 66 ],
         ["NAND3X1", 191 ],
         ["AOI21X1", 245 ],
         ["NAND2X1", 141 ],
         ["DFFPOSX1", 68 ],
         ["OR2X2", 24 ],
         ["BUFX2", 8 ],
         ["OAI22X1", 6 ],
         ["INVX1", 171 ],
         ["AND2X2", 67 ],
         ["XOR2X1", 2 ],
         ["NOR3X1", 26 ],
         ["INVX4", 20 ],
         ["BUFX4", 8 ],
         ["AOI22X1", 15 ],
         ["XNOR2X1", 4 ],
         ["CLKBUF1", 8 ],
         ["MUX2X1", 5 ]
       ]
   ],
   "nets": [
    1502,
    1502
   ],
   "badnets": [
   ],
   "badelements": [
   ],
   "pins": [
      [
        "mayor[0]",
        "mayor[1]",
        "mayor[2]",
        "mayor[3]",
        "menor[2]",
        "menor[1]",
        "menor[0]",
        "menor[3]",
        "data_B[4]",
        "data_B[0]",
        "data_B[25]",
        "data_B[20]",
        "data_B[21]",
        "data_B[8]",
        "data_B[9]",
        "data_B[1]",
        "data_A[17]",
        "data_A[24]",
        "data_A[26]",
        "data_B[17]",
        "data_A[22]",
        "data_A[14]",
        "data_A[10]",
        "data_A[8]",
        "data_A[9]",
        "data_A[2]",
        "data_B[6]",
        "data_B[30]",
        "data_B[18]",
        "data_B[14]",
        "data_B[13]",
        "data_B[2]",
        "data_B[29]",
        "data_B[31]",
        "data_B[19]",
        "data_B[11]",
        "data_B[23]",
        "data_B[7]",
        "data_B[3]",
        "data_A[28]",
        "data_A[30]",
        "data_A[31]",
        "data_A[29]",
        "data_A[21]",
        "data_A[23]",
        "data_A[19]",
        "data_A[15]",
        "data_A[20]",
        "data_A[7]",
        "data_A[4]",
        "data_A[5]",
        "data_B[15]",
        "data_B[10]",
        "data_B[22]",
        "data_A[6]",
        "data_A[18]",
        "data_A[12]",
        "data_A[13]",
        "data_B[24]",
        "data_B[26]",
        "data_B[27]",
        "data_A[27]",
        "data_A[25]",
        "data_A[16]",
        "data_B[28]",
        "data_B[5]",
        "data_A[1]",
        "data_A[3]",
        "data_A[0]",
        "data_B[12]",
        "data_A[11]",
        "data_B[16]",
        "sel[4]",
        "sel[3]",
        "sel[0]",
        "sel[2]",
        "sel[1]",
        "sel_B[5]",
        "sel_B[2]",
        "sel_B[8]",
        "sel_B[11]",
        "sel_B[14]",
        "sel_B[0]",
        "sel_B[3]",
        "sel_B[6]",
        "sel_B[9]",
        "sel_B[12]",
        "sel_B[1]",
        "sel_B[4]",
        "sel_B[7]",
        "sel_B[13]",
        "sel_B[10]",
        "sel_A[1]",
        "sel_A[4]",
        "sel_A[10]",
        "sel_A[7]",
        "sel_A[13]",
        "clk",
        "reset_L",
        "sel_A[0]",
        "sel_A[3]",
        "sel_A[9]",
        "sel_A[12]",
        "sel_A[6]",
        "sel_A[2]",
        "sel_A[5]",
        "sel_A[14]",
        "sel_A[8]",
        "sel_A[11]",
        "vdd",
        "gnd"
      ], [
        "mayor[0]",
        "mayor[1]",
        "mayor[2]",
        "mayor[3]",
        "menor[2]",
        "menor[1]",
        "menor[0]",
        "menor[3]",
        "data_B[4]",
        "data_B[0]",
        "data_B[25]",
        "data_B[20]",
        "data_B[21]",
        "data_B[8]",
        "data_B[9]",
        "data_B[1]",
        "data_A[17]",
        "data_A[24]",
        "data_A[26]",
        "data_B[17]",
        "data_A[22]",
        "data_A[14]",
        "data_A[10]",
        "data_A[8]",
        "data_A[9]",
        "data_A[2]",
        "data_B[6]",
        "data_B[30]",
        "data_B[18]",
        "data_B[14]",
        "data_B[13]",
        "data_B[2]",
        "data_B[29]",
        "data_B[31]",
        "data_B[19]",
        "data_B[11]",
        "data_B[23]",
        "data_B[7]",
        "data_B[3]",
        "data_A[28]",
        "data_A[30]",
        "data_A[31]",
        "data_A[29]",
        "data_A[21]",
        "data_A[23]",
        "data_A[19]",
        "data_A[15]",
        "data_A[20]",
        "data_A[7]",
        "data_A[4]",
        "data_A[5]",
        "data_B[15]",
        "data_B[10]",
        "data_B[22]",
        "data_A[6]",
        "data_A[18]",
        "data_A[12]",
        "data_A[13]",
        "data_B[24]",
        "data_B[26]",
        "data_B[27]",
        "data_A[27]",
        "data_A[25]",
        "data_A[16]",
        "data_B[28]",
        "data_B[5]",
        "data_A[1]",
        "data_A[3]",
        "data_A[0]",
        "data_B[12]",
        "data_A[11]",
        "data_B[16]",
        "sel[4]",
        "sel[3]",
        "sel[0]",
        "sel[2]",
        "sel[1]",
        "sel_B[5]",
        "sel_B[2]",
        "sel_B[8]",
        "sel_B[11]",
        "sel_B[14]",
        "sel_B[0]",
        "sel_B[3]",
        "sel_B[6]",
        "sel_B[9]",
        "sel_B[12]",
        "sel_B[1]",
        "sel_B[4]",
        "sel_B[7]",
        "sel_B[13]",
        "sel_B[10]",
        "sel_A[1]",
        "sel_A[4]",
        "sel_A[10]",
        "sel_A[7]",
        "sel_A[13]",
        "clk",
        "reset_L",
        "sel_A[0]",
        "sel_A[3]",
        "sel_A[9]",
        "sel_A[12]",
        "sel_A[6]",
        "sel_A[2]",
        "sel_A[5]",
        "sel_A[14]",
        "sel_A[8]",
        "sel_A[11]",
        "vdd",
        "gnd"
      ]
   ]
  }
]
